[gd_scene load_steps=5 format=2]

[ext_resource path="res://img/intro/bg_intro.png" type="Texture" id=1]
[ext_resource path="res://img/intro/1.jpg" type="Texture" id=2]
[ext_resource path="res://img/intro/fundo.png" type="Texture" id=3]

[sub_resource type="GDScript" id=1]

script/source = "extends Node2D
#Herda de Node2D

#Cada dicx (onde x é o numero do dic) é uma lista com os dialogos 
#e os nomes das imagens correspondentes
var dic1 = [\"2\", \"3\", \"4\", \"5\", \"\"\"O Iluminismo foi um movimento de conjunto de bases teóricas que, no século XVIII, 
ajudavam a questionar os poderes das ordens vigentes e a criar uma nova ordem política. 
A razão, baseando-se na observação e experimentação é, para esses homens, como uma 
força motriz que levaria os indivíduos à verdade. Agora, tudo deveria ser submetido a esse 
espírito crítico, duvidando e, se preciso, eliminando. A sociedade é, portanto, alvo da razão
iluminista. Nesse sentido, a religião, as formas políticas e econômicas dos Estados serão 
debatidas e refutadas por esses homens.
\"\"\"]

var dic2 = [\"1\", \"\"\"Entre os principais homens do movimento, se encontra Jean-Jacques Rousseau. 
Muito mobilizado durante a trajetória histórica da Revolução Francesa devido 
aos seus pensamentos mais populares, Rousseau preconizava o que hoje 
entendemos como democracia, enquanto a expressão da vontade geral da população 
de uma nação. A liberdade dos homens e a crença na igualdade destes também fez 
parte dos argumentos do autor.
\"\"\"]

var dic3 = [\"14\", \"15\", \"16\", \"17\", \"18\", \"\"\"O contexto problemático da França no período próximo a sua
Revolução abriu a possibilidade e a urgência na formação de uma nova Constituição. 
O rombo dos orçamentos públicos gerado pelas perdas de colônias e das guerras com 
a Inglaterra, bem como o auxílio prestado à independência americana alimentou um 
cenário desfavorável que logo se agravaria com as más colheitas. O sistema político 
da monarquia, a partir disso, foi duramente criticado. A pompa da realeza e da nobreza
francesa passou a ser, pelos segmentos populares e os intelectuais influenciados pela
razão iluminista, alvo de questionamentos.
\"\"\"]

var dic4 = [\"13\", \"\"\"Em um panfleto publicado em 1789, se perguntava:
“O Plano deste trabalho é muito simples. Devemos responder a três
perguntas:
1a) O que é o Terceiro Estado? – Tudo.
2a) O que tem sido ele, até agora, na ordem política? – Nada.
3a) O que é que ele pede? – Ser alguma coisa.”\"\"\"]

var dic5 = [\"7\", \"8\", \"9\", \"10\", \"11\", \"12\", \"\"\"Assim, em 1789 abre-se a Assembleia Nacional, responsável
por redigir um documento que regesse as reformas necessárias à França, neste contexto.
A Constituição de 1791 aboliu privilégios e tradições nobiliárquicas presentes há muito
na sociedade francesa, como a indistinção das punições, a soberania pertencente à nação, 
a responsabilidade do Corpo Legislativo na proposição e decreto de leis, etc. A carta também
apresenta características que representam influências do movimento iluminista, como a divisão
dos poderes do Estado em três instâncias: Executivo, Legislativo e Judiciário.
\"\"\"]

#lib armazena a todos os dics
#t é um objeto do tipo Timer para controlar o tempo
var lib = [dic1, dic2, dic3, dic4, dic5]
var t = Timer.new()

func _ready():
	#Quando a cena estiver pronta inicia @main()
	main()
	
func imgChanger(var img):
	#Troca image do sprite sp pela imagem recebida em img
	var sp = get_node(\"Sprite\")
	sp.texture = load(\"res://img/intro/\"+img+\".jpg\")
	
func txtChanger(var text):
	#Troca o texto do label pelo texto recebido em text
	get_node(\"Sprite/Label\").set_text(text)
	
func main():
	#função pricipal
	\"\"\"
	Pecorre lista de dics com o for.
	Para cada dic em lib troca o texto do label
	e pecorre cada dic trocando as imagens de fundo
	num periodo determinado pelo tamanho de cada texto
	no label. 
	Ao final da lista lib inicia a cena 'cena01_partidos'.
	\"\"\"
	for obj in lib:
		txtChanger(obj[-1])
		var size = obj.size()
		for j in range(size-1):
			var length = obj[-1].length()
			var time = length/(45*(size-1))
			
			imgChanger(obj[j])
			
			t.set_wait_time(time)
			t.set_one_shot(true)
			add_child(t)
			t.start()
			yield(t, \"timeout\")
		if (obj == lib[-1]):
			change_scene()

func _on_jump_pressed():
	#Quando jump é precionado inicia a cena 'cena01_partidos'
	change_scene()
	
func change_scene():
	get_tree().change_scene(\"res://scenes/perguntas/cena01.tscn\")
"

[node name="intro" type="Node2D" index="0"]

position = Vector2( 319.8, 241.414 )
scale = Vector2( 9.99531, 7.50764 )
script = SubResource( 1 )
_sections_unfolded = [ "Visibility" ]

[node name="bg" type="Sprite" parent="." index="0"]

position = Vector2( 0.194673, -0.0631996 )
scale = Vector2( 0.100704, 0.160702 )
texture = ExtResource( 1 )

[node name="Sprite" type="Sprite" parent="." index="1"]

position = Vector2( 0.0695552, -0.178354 )
scale = Vector2( 0.098962, 0.14783 )
texture = ExtResource( 2 )

[node name="fundo" type="Sprite" parent="Sprite" index="0"]

position = Vector2( 6.44656, 141.582 )
scale = Vector2( 1.078, 0.762726 )
texture = ExtResource( 3 )

[node name="Label" type="Label" parent="Sprite" index="1"]

anchor_left = 0.0
anchor_top = 0.0
anchor_right = 0.0
anchor_bottom = 0.0
margin_left = -249.0
margin_top = 66.0
margin_right = 397.0
margin_bottom = 233.0
rect_scale = Vector2( 0.8, 0.8 )
rect_pivot_offset = Vector2( 0, 0 )
rect_clip_content = false
mouse_filter = 2
mouse_default_cursor_shape = 0
size_flags_horizontal = 1
size_flags_vertical = 4
text = "<Texto generico de visualização>"
align = 1
valign = 1
percent_visible = 1.0
lines_skipped = 0
max_lines_visible = -1
_sections_unfolded = [ "Hint", "Rect" ]

[node name="jump" type="Button" parent="Sprite" index="2"]

anchor_left = 0.0
anchor_top = 0.0
anchor_right = 0.0
anchor_bottom = 0.0
margin_left = 248.0
margin_top = -202.0
margin_right = 292.0
margin_bottom = -182.0
rect_pivot_offset = Vector2( 0, 0 )
rect_clip_content = false
focus_mode = 2
mouse_filter = 0
mouse_default_cursor_shape = 0
size_flags_horizontal = 1
size_flags_vertical = 1
toggle_mode = false
enabled_focus_mode = 2
shortcut = null
group = null
text = "Pular"
flat = false
align = 1

[connection signal="pressed" from="Sprite/jump" to="." method="_on_jump_pressed"]


